fpga/fomu/serial_expect.vcd
$date
	Thu Feb 22 14:57:07 2024
$end
$version
	Icarus Verilog
$end
$timescale
	10ns
$end
$scope module test_bench $end
$var wire 8 ! tx_data [7:0] $end
$var wire 1 " tx_wr $end
$var wire 1 # uart_rx $end
$var wire 1 $ uart_tx $end
$var wire 1 % tx_busy $end
$var wire 1 & rx_wr $end
$var wire 8 ' rx_data [7:0] $end
$var parameter 32 ( BAUD_RATE $end
$var parameter 32 ) CLK_FREQ $end
$var reg 1 * clk $end
$scope module SER_RX $end
$var wire 1 * i_clk $end
$var wire 1 # i_rx $end
$var wire 1 + baud_zero $end
$var parameter 32 , BAUD_BITS $end
$var parameter 32 - BAUD_CLKS $end
$var parameter 32 . BAUD_RATE $end
$var parameter 32 / CLK_FREQ $end
$var parameter 33 0 FULL_BIT_TIME $end
$var parameter 32 1 HALF_BIT_TIME $end
$var parameter 4 2 IDLE $end
$var parameter 4 3 START $end
$var parameter 4 4 STOP $end
$var reg 2 5 baud_time [1:0] $end
$var reg 8 6 o_data [7:0] $end
$var reg 1 & o_wr $end
$var reg 1 7 r_rx $end
$var reg 1 8 rx $end
$var reg 1 9 s_rx $end
$var reg 4 : state [3:0] $end
$upscope $end
$scope module SER_TX $end
$var wire 1 * i_clk $end
$var wire 8 ; i_data [7:0] $end
$var wire 1 " i_wr $end
$var wire 1 < start $end
$var wire 1 $ o_tx $end
$var wire 1 = baud_stb $end
$var parameter 32 > BAUD_CLKS $end
$var parameter 32 ? BAUD_RATE $end
$var parameter 32 @ CLK_FREQ $end
$var parameter 32 A CNT_BITS $end
$var parameter 4 B START $end
$var parameter 4 C STOP $end
$var reg 2 D baud_cnt [1:0] $end
$var reg 9 E data_sr [8:0] $end
$var reg 1 % o_busy $end
$var reg 4 F state [3:0] $end
$upscope $end
$upscope $end
$enddefinitions $end
$comment Show the parameter values. $end
$dumpall
b1000 C
b1111 B
b10 A
b1111010000100100000 @
b11100001000000000 ?
b100 >
b1000 4
b1111 3
b1100 2
b10 1
b11 0
b1111010000100100000 /
b11100001000000000 .
b100 -
b10 ,
b1111010000100100000 )
b11100001000000000 (
$end
#0
$dumpvars
b1000 F
b111111111 E
b0 D
1=
1<
b1001011 ;
b1100 :
19
18
17
b0 6
b0 5
1+
0*
b0 '
0&
0%
1$
1#
1"
b1001011 !
$end
#100
0<
0#
0$
0=
b11 D
1%
b1111 F
b10010110 E
1*
#200
0*
#300
07
b10 D
1*
#400
0*
#500
b1 D
09
1*
#600
0*
#700
08
1=
b0 D
1*
#800
0*
#900
1#
1$
0=
b11 D
b0 F
b101001011 E
b1111 :
0+
b10 5
1*
#1000
0*
#1100
b1 5
17
b10 D
1*
#1200
0*
#1300
b1 D
19
1+
b0 5
1*
#1400
0*
#1500
b0 :
0+
b11 5
18
1=
b0 D
1*
#1600
0*
#1700
0=
b11 D
b1 F
b110100101 E
b10 5
1*
#1800
0*
#1900
b1 5
b10 D
1*
#2000
0*
#2100
b1 D
1+
b0 5
1*
#2200
0*
#2300
b1 :
0+
b11 5
b10000000 '
b10000000 6
1=
b0 D
1*
#2400
0*
#2500
0#
0$
0=
b11 D
b10 F
b111010010 E
b10 5
1*
#2600
0*
#2700
b1 5
07
b10 D
1*
#2800
0*
#2900
b1 D
09
1+
b0 5
1*
#3000
0*
#3100
b10 :
0+
b11 5
b11000000 '
b11000000 6
08
1=
b0 D
1*
#3200
0*
#3300
1#
1$
0=
b11 D
b11 F
b111101001 E
b10 5
1*
#3400
0*
#3500
b1 5
17
b10 D
1*
#3600
0*
#3700
b1 D
19
1+
b0 5
1*
#3800
0*
#3900
b11 :
0+
b11 5
b1100000 '
b1100000 6
18
1=
b0 D
1*
#4000
0*
#4100
0#
0$
0=
b11 D
b100 F
b111110100 E
b10 5
1*
#4200
0*
#4300
b1 5
07
b10 D
1*
#4400
0*
#4500
b1 D
09
1+
b0 5
1*
#4600
0*
#4700
b100 :
0+
b11 5
b10110000 '
b10110000 6
08
1=
b0 D
1*
#4800
0*
#4900
0=
b11 D
b101 F
b111111010 E
b10 5
1*
#5000
0*
#5100
b1 5
b10 D
1*
#5200
0*
#5300
b1 D
1+
b0 5
1*
#5400
0*
#5500
b101 :
0+
b11 5
b1011000 '
b1011000 6
1=
b0 D
1*
#5600
0*
#5700
1#
1$
0=
b11 D
b110 F
b111111101 E
b10 5
1*
#5800
0*
#5900
b1 5
17
b10 D
1*
#6000
0*
#6100
b1 D
19
1+
b0 5
1*
#6200
0*
#6300
b110 :
0+
b11 5
b101100 '
b101100 6
18
1=
b0 D
1*
#6400
0*
#6500
0#
0$
0=
b11 D
b111 F
b111111110 E
b10 5
1*
#6600
0*
#6700
b1 5
07
b10 D
1*
#6800
0*
#6900
b1 D
09
1+
b0 5
1*
#7000
0*
#7100
b111 :
0+
b11 5
b10010110 '
b10010110 6
08
1=
b0 D
1*
#7200
0*
#7300
1#
1$
0=
b11 D
b1000 F
b111111111 E
b10 5
1*
#7400
0*
#7500
b1 5
17
b10 D
1*
#7600
0*
#7700
b1 D
19
1+
b0 5
1*
#7800
0*
#7900
b1000 :
0+
b11 5
b1001011 '
b1001011 6
18
1=
b0 D
1*
#8000
0*
#8100
1<
0%
b10 5
1*
#8200
0*
#8300
0#
0$
0<
b1 5
b10010110 E
1%
b1111 F
0=
b11 D
1*
#8400
0*
#8500
b10 D
07
1+
b0 5
1*
#8600
0*
#8700
b1100 :
1&
09
b1 D
1*
#8800
0*
#8900
1=
b0 D
08
0&
1*
#9000
0*
#9100
1#
1$
b1111 :
0+
b10 5
b101001011 E
b0 F
0=
b11 D
1*
#9200
0*
#9300
b10 D
17
b1 5
1*
#9400
0*
#9500
1+
b0 5
19
b1 D
1*
#9600
0*
#9700
1=
b0 D
18
b0 :
0+
b11 5
1*
#9800
0*
#9900
b10 5
b110100101 E
b1 F
0=
b11 D
1*
#10000
0*
#10100
b10 D
b1 5
1*
#10200
0*
#10300
1+
b0 5
b1 D
1*
#10400
0*
#10500
1=
b0 D
b1 :
0+
b11 5
b10100101 '
b10100101 6
1*
#10600
0*
#10700
0#
0$
b10 5
b111010010 E
b10 F
0=
b11 D
1*
#10800
0*
#10900
b10 D
07
b1 5
1*
#11000
0*
#11100
1+
b0 5
09
b1 D
1*
#11200
0*
#11300
1=
b0 D
08
b10 :
0+
b11 5
b11010010 '
b11010010 6
1*
#11400
0*
#11500
1#
1$
b10 5
b111101001 E
b11 F
0=
b11 D
1*
#11600
0*
#11700
b10 D
17
b1 5
1*
#11800
0*
#11900
1+
b0 5
19
b1 D
1*
#12000
0*
#12100
1=
b0 D
18
b11 :
0+
b11 5
b1101001 '
b1101001 6
1*
#12200
0*
#12300
0#
0$
b10 5
b111110100 E
b100 F
0=
b11 D
1*
#12400
0*
#12500
b10 D
07
b1 5
1*
#12600
0*
#12700
1+
b0 5
09
b1 D
1*
#12800
0*
#12900
1=
b0 D
08
b100 :
0+
b11 5
b10110100 '
b10110100 6
1*
#13000
0*
#13100
b10 5
b111111010 E
b101 F
0=
b11 D
1*
#13200
0*
#13300
b10 D
b1 5
1*
#13400
0*
#13500
1+
b0 5
b1 D
1*
#13600
0*
#13700
1=
b0 D
b101 :
0+
b11 5
b1011010 '
b1011010 6
1*
#13800
0*
#13900
1#
1$
b10 5
b111111101 E
b110 F
0=
b11 D
1*
#14000
0*
#14100
b10 D
17
b1 5
1*
#14200
0*
#14300
1+
b0 5
19
b1 D
1*
#14400
0*
#14500
1=
b0 D
18
b110 :
0+
b11 5
b101101 '
b101101 6
1*
#14600
0*
#14700
0#
0$
b10 5
b111111110 E
b111 F
0=
b11 D
1*
#14800
0*
#14900
b10 D
07
b1 5
1*
#15000
0*
#15100
1+
b0 5
09
b1 D
1*
#15200
0*
#15300
1=
b0 D
08
b111 :
0+
b11 5
b10010110 '
b10010110 6
1*
#15400
0*
#15500
1#
1$
b10 5
b111111111 E
b1000 F
0=
b11 D
1*
#15600
0*
#15700
b10 D
17
b1 5
1*
#15800
0*
#15900
1+
b0 5
19
b1 D
1*
#16000
0*
#16100
1=
b0 D
18
b1000 :
0+
b11 5
b1001011 '
b1001011 6
1*
#16200
0*
#16300
1<
b10 5
0%
1*
#16400
0*
#16500
0<
0#
0$
0=
b11 D
1%
b1111 F
b10010110 E
b1 5
1*
#16600
0*
#16700
1+
b0 5
07
b10 D
1*
#16800
0*
#16900
b1 D
09
b1100 :
1&
1*
#17000
0*
#17100
0&
08
1=
b0 D
1*
#17200
0*
#17300
1#
1$
0=
b11 D
b0 F
b101001011 E
b1111 :
0+
b10 5
1*
#17400
0*
#17500
b1 5
17
b10 D
1*
#17600
0*
#17700
b1 D
19
1+
b0 5
1*
#17800
0*
#17900
b0 :
0+
b11 5
18
1=
b0 D
1*
#18000
0*
#18100
0=
b11 D
b1 F
b110100101 E
b10 5
1*
#18200
0*
#18300
b1 5
b10 D
1*
#18400
0*
#18500
b1 D
1+
b0 5
1*
#18600
0*
#18700
b1 :
0+
b11 5
b10100101 '
b10100101 6
1=
b0 D
1*
#18800
0*
#18900
0#
0$
0=
b11 D
b10 F
b111010010 E
b10 5
1*
#19000
0*
#19100
b1 5
07
b10 D
1*
#19200
0*
#19300
b1 D
09
1+
b0 5
1*
#19400
0*
#19500
b10 :
0+
b11 5
b11010010 '
b11010010 6
08
1=
b0 D
1*
#19600
0*
#19700
1#
1$
0=
b11 D
b11 F
b111101001 E
b10 5
1*
#19800
0*
#19900
b1 5
17
b10 D
1*
#20000
0*
#20100
b1 D
19
1+
b0 5
1*
#20200
0*
#20300
b11 :
0+
b11 5
b1101001 '
b1101001 6
18
1=
b0 D
1*
#20400
0*
#20500
0#
0$
0=
b11 D
b100 F
b111110100 E
b10 5
1*
#20600
0*
#20700
b1 5
07
b10 D
1*
#20800
0*
#20900
b1 D
09
1+
b0 5
1*
#21000
0*
#21100
b100 :
0+
b11 5
b10110100 '
b10110100 6
08
1=
b0 D
1*
#21200
0*
#21300
0=
b11 D
b101 F
b111111010 E
b10 5
1*
#21400
0*
#21500
b1 5
b10 D
1*
#21600
0*
#21700
b1 D
1+
b0 5
1*
#21800
0*
#21900
b101 :
0+
b11 5
b1011010 '
b1011010 6
1=
b0 D
1*
#22000
0*
#22100
1#
1$
0=
b11 D
b110 F
b111111101 E
b10 5
1*
#22200
0*
#22300
b1 5
17
b10 D
1*
#22400
0*
#22500
b1 D
19
1+
b0 5
1*
#22600
0*
#22700
b110 :
0+
b11 5
b101101 '
b101101 6
18
1=
b0 D
1*
#22800
0*
#22900
0#
0$
0=
b11 D
b111 F
b111111110 E
b10 5
1*
#23000
0*
#23100
b1 5
07
b10 D
1*
#23200
0*
#23300
b1 D
09
1+
b0 5
1*
#23400
0*
#23500
b111 :
0+
b11 5
b10010110 '
b10010110 6
08
1=
b0 D
1*
#23600
0*
#23700
1#
1$
0=
b11 D
b1000 F
b111111111 E
b10 5
1*
#23800
0*
#23900
b1 5
17
b10 D
1*
#24000
0*
#24100
b1 D
19
1+
b0 5
1*
#24200
0*
#24300
b1000 :
0+
b11 5
b1001011 '
b1001011 6
18
1=
b0 D
1*
#24400
0*
#24500
1<
0%
b10 5
1*
#24600
0*
#24700
0#
0$
0<
b1 5
b10010110 E
1%
b1111 F
0=
b11 D
1*
#24800
0*
#24900
b10 D
07
1+
b0 5
1*
#25000
0*
#25100
b1100 :
1&
09
b1 D
1*
#25200
0*
#25300
1=
b0 D
08
0&
1*
#25400
0*
#25500
1#
1$
b1111 :
0+
b10 5
b101001011 E
b0 F
0=
b11 D
1*
#25600
0*
#25700
b10 D
17
b1 5
1*
#25800
0*
#25900
1+
b0 5
19
b1 D
1*
#26000
0*
#26100
1=
b0 D
18
b0 :
0+
b11 5
1*
#26200
0*
#26300
b10 5
b110100101 E
b1 F
0=
b11 D
1*
#26400
0*
#26500
b10 D
b1 5
1*
#26600
0*
#26700
1+
b0 5
b1 D
1*
#26800
0*
#26900
1=
b0 D
b1 :
0+
b11 5
b10100101 '
b10100101 6
1*
#27000
0*
#27100
0#
0$
b10 5
b111010010 E
b10 F
0=
b11 D
1*
#27200
0*
#27300
b10 D
07
b1 5
1*
#27400
0*
#27500
1+
b0 5
09
b1 D
1*
#27600
0*
#27700
1=
b0 D
08
b10 :
0+
b11 5
b11010010 '
b11010010 6
1*
#27800
0*
#27900
1#
1$
b10 5
b111101001 E
b11 F
0=
b11 D
1*
#28000
0*
#28100
b10 D
17
b1 5
1*
#28200
0*
#28300
1+
b0 5
19
b1 D
1*
#28400
0*
#28500
1=
b0 D
18
b11 :
0+
b11 5
b1101001 '
b1101001 6
1*
#28600
0*
#28700
0#
0$
b10 5
b111110100 E
b100 F
0=
b11 D
1*
#28800
0*
#28900
b10 D
07
b1 5
1*
#29000
0*
#29100
1+
b0 5
09
b1 D
1*
#29200
0*
#29300
1=
b0 D
08
b100 :
0+
b11 5
b10110100 '
b10110100 6
1*
#29400
0*
#29500
b10 5
b111111010 E
b101 F
0=
b11 D
1*
#29600
0*
#29700
b10 D
b1 5
1*
#29800
0*
#29900
1+
b0 5
b1 D
1*
#30000
0*
#30100
1=
b0 D
b101 :
0+
b11 5
b1011010 '
b1011010 6
1*
#30200
0*
#30300
1#
1$
b10 5
b111111101 E
b110 F
0=
b11 D
1*
#30400
0*
#30500
b10 D
17
b1 5
1*
#30600
0*
#30700
1+
b0 5
19
b1 D
1*
#30800
0*
#30900
1=
b0 D
18
b110 :
0+
b11 5
b101101 '
b101101 6
1*
#31000
0*
#31100
0#
0$
b10 5
b111111110 E
b111 F
0=
b11 D
1*
#31200
0*
#31300
b10 D
07
b1 5
1*
#31400
0*
#31500
1+
b0 5
09
b1 D
1*
#31600
0*
#31700
1=
b0 D
08
b111 :
0+
b11 5
b10010110 '
b10010110 6
1*
#31800
0*
#31900
1#
1$
b10 5
b111111111 E
b1000 F
0=
b11 D
1*
#32000
0*
#32100
b10 D
17
b1 5
1*
#32200
0*
#32300
1+
b0 5
19
b1 D
1*
#32400
0*
#32500
1=
b0 D
18
b1000 :
0+
b11 5
b1001011 '
b1001011 6
1*
#32600
0*
#32700
1<
b10 5
0%
1*
#32800
0*
#32900
0<
0#
0$
0=
b11 D
1%
b1111 F
b10010110 E
b1 5
1*
#33000
0*
#33100
1+
b0 5
07
b10 D
1*
#33200
0*
#33300
b1 D
09
b1100 :
1&
1*
#33400
0*
#33500
0&
08
1=
b0 D
1*
#33600
0*
#33700
1#
1$
0=
b11 D
b0 F
b101001011 E
b1111 :
0+
b10 5
1*
#33800
0*
#33900
b1 5
17
b10 D
1*
#34000
0*
#34100
b1 D
19
1+
b0 5
1*
#34200
0*
#34300
b0 :
0+
b11 5
18
1=
b0 D
1*
#34400
0*
#34500
0=
b11 D
b1 F
b110100101 E
b10 5
1*
#34600
0*
#34700
b1 5
b10 D
1*
#34800
0*
#34900
b1 D
1+
b0 5
1*
#35000
0*
#35100
b1 :
0+
b11 5
b10100101 '
b10100101 6
1=
b0 D
1*
#35200
0*
#35300
0#
0$
0=
b11 D
b10 F
b111010010 E
b10 5
1*
#35400
0*
#35500
b1 5
07
b10 D
1*
#35600
0*
#35700
b1 D
09
1+
b0 5
1*
#35800
0*
#35900
b10 :
0+
b11 5
b11010010 '
b11010010 6
08
1=
b0 D
1*
#36000
0*
#36100
1#
1$
0=
b11 D
b11 F
b111101001 E
b10 5
1*
#36200
0*
#36300
b1 5
17
b10 D
1*
#36400
0*
#36500
b1 D
19
1+
b0 5
1*
#36600
0*
#36700
b11 :
0+
b11 5
b1101001 '
b1101001 6
18
1=
b0 D
1*
#36800
0*
#36900
0#
0$
0=
b11 D
b100 F
b111110100 E
b10 5
1*
#37000
0*
#37100
b1 5
07
b10 D
1*
#37200
0*
#37300
b1 D
09
1+
b0 5
1*
#37400
0*
#37500
b100 :
0+
b11 5
b10110100 '
b10110100 6
08
1=
b0 D
1*
#37600
0*
#37700
0=
b11 D
b101 F
b111111010 E
b10 5
1*
#37800
0*
#37900
b1 5
b10 D
1*
#38000
0*
#38100
b1 D
1+
b0 5
1*
#38200
0*
#38300
b101 :
0+
b11 5
b1011010 '
b1011010 6
1=
b0 D
1*
#38400
0*
#38500
1#
1$
0=
b11 D
b110 F
b111111101 E
b10 5
1*
#38600
0*
#38700
b1 5
17
b10 D
1*
#38800
0*
#38900
b1 D
19
1+
b0 5
1*
#39000
0*
#39100
b110 :
0+
b11 5
b101101 '
b101101 6
18
1=
b0 D
1*
#39200
0*
#39300
0#
0$
0=
b11 D
b111 F
b111111110 E
b10 5
1*
#39400
0*
#39500
b1 5
07
b10 D
1*
#39600
0*
#39700
b1 D
09
1+
b0 5
1*
#39800
0*
#39900
b111 :
0+
b11 5
b10010110 '
b10010110 6
08
1=
b0 D
1*
#40000
0*
#40100
1#
1$
0=
b11 D
b1000 F
b111111111 E
b10 5
1*
#40200
0*
#40300
b1 5
17
b10 D
1*
#40400
0*
#40500
b1 D
19
1+
b0 5
1*
#40600
0*
#40700
b1000 :
0+
b11 5
b1001011 '
b1001011 6
18
1=
b0 D
1*
#40800
0*
#40900
1<
0%
b10 5
1*
#41000
0*
#41100
0#
0$
0<
b1 5
b10010110 E
1%
b1111 F
0=
b11 D
1*
#41200
0*
#41300
b10 D
07
1+
b0 5
1*
#41400
0*
#41500
b1100 :
1&
09
b1 D
1*
#41600
0*
#41700
1=
b0 D
08
0&
1*
#41800
0*
#41900
1#
1$
b1111 :
0+
b10 5
b101001011 E
b0 F
0=
b11 D
1*
#42000
0*
#42100
b10 D
17
b1 5
1*
#42200
0*
#42300
1+
b0 5
19
b1 D
1*
#42400
0*
#42500
1=
b0 D
18
b0 :
0+
b11 5
1*
#42600
0*
#42700
b10 5
b110100101 E
b1 F
0=
b11 D
1*
#42800
0*
#42900
b10 D
b1 5
1*
#43000
0*
#43100
1+
b0 5
b1 D
1*
#43200
0*
#43300
1=
b0 D
b1 :
0+
b11 5
b10100101 '
b10100101 6
1*
#43400
0*
#43500
0#
0$
b10 5
b111010010 E
b10 F
0=
b11 D
1*
#43600
0*
#43700
b10 D
07
b1 5
1*
#43800
0*
#43900
1+
b0 5
09
b1 D
1*
#44000
0*
#44100
1=
b0 D
08
b10 :
0+
b11 5
b11010010 '
b11010010 6
1*
#44200
0*
#44300
1#
1$
b10 5
b111101001 E
b11 F
0=
b11 D
1*
#44400
0*
#44500
b10 D
17
b1 5
1*
#44600
0*
#44700
1+
b0 5
19
b1 D
1*
#44800
0*
#44900
1=
b0 D
18
b11 :
0+
b11 5
b1101001 '
b1101001 6
1*
#45000
0*
#45100
0#
0$
b10 5
b111110100 E
b100 F
0=
b11 D
1*
#45200
0*
#45300
b10 D
07
b1 5
1*
#45400
0*
#45500
1+
b0 5
09
b1 D
1*
#45600
0*
#45700
1=
b0 D
08
b100 :
0+
b11 5
b10110100 '
b10110100 6
1*
#45800
0*
#45900
b10 5
b111111010 E
b101 F
0=
b11 D
1*
#46000
0*
#46100
b10 D
b1 5
1*
#46200
0*
#46300
1+
b0 5
b1 D
1*
#46400
0*
#46500
1=
b0 D
b101 :
0+
b11 5
b1011010 '
b1011010 6
1*
#46600
0*
#46700
1#
1$
b10 5
b111111101 E
b110 F
0=
b11 D
1*
#46800
0*
#46900
b10 D
17
b1 5
1*
#47000
0*
#47100
1+
b0 5
19
b1 D
1*
#47200
0*
#47300
1=
b0 D
18
b110 :
0+
b11 5
b101101 '
b101101 6
1*
#47400
0*
#47500
0#
0$
b10 5
b111111110 E
b111 F
0=
b11 D
1*
#47600
0*
#47700
b10 D
07
b1 5
1*
#47800
0*
#47900
1+
b0 5
09
b1 D
1*
#48000
0*
#48100
1=
b0 D
08
b111 :
0+
b11 5
b10010110 '
b10010110 6
1*
#48200
0*
#48300
1#
1$
b10 5
b111111111 E
b1000 F
0=
b11 D
1*
#48400
0*
#48500
b10 D
17
b1 5
1*
#48600
0*
#48700
1+
b0 5
19
b1 D
1*
#48800
0*
#48900
1=
b0 D
18
b1000 :
0+
b11 5
b1001011 '
b1001011 6
1*
#49000
0*
#49100
1<
b10 5
0%
1*
#49200
0*
#49300
0<
0#
0$
0=
b11 D
1%
b1111 F
b10010110 E
b1 5
1*
#49400
0*
#49500
1+
b0 5
07
b10 D
1*
#49600
0*
#49700
b1 D
09
b1100 :
1&
1*
#49800
0*
#49900
0&
08
1=
b0 D
1*
#50000
0*
#50100
1#
1$
0=
b11 D
b0 F
b101001011 E
b1111 :
0+
b10 5
1*
#50200
0*
#50300
b1 5
17
b10 D
1*
#50400
0*
#50500
b1 D
19
1+
b0 5
1*
#50600
0*
#50700
b0 :
0+
b11 5
18
1=
b0 D
1*
#50800
0*
#50900
0=
b11 D
b1 F
b110100101 E
b10 5
1*
#51000
0*
#51100
b1 5
b10 D
1*
#51200
0*
#51300
b1 D
1+
b0 5
1*
#51400
0*
#51500
b1 :
0+
b11 5
b10100101 '
b10100101 6
1=
b0 D
1*
#51600
0*
#51700
0#
0$
0=
b11 D
b10 F
b111010010 E
b10 5
1*
#51800
0*
#51900
b1 5
07
b10 D
1*
#52000
0*
#52100
b1 D
09
1+
b0 5
1*
#52200
0*
#52300
b10 :
0+
b11 5
b11010010 '
b11010010 6
08
1=
b0 D
1*
#52400
0*
#52500
1#
1$
0=
b11 D
b11 F
b111101001 E
b10 5
1*
#52600
0*
#52700
b1 5
17
b10 D
1*
#52800
0*
#52900
b1 D
19
1+
b0 5
1*
#53000
0*
#53100
b11 :
0+
b11 5
b1101001 '
b1101001 6
18
1=
b0 D
1*
#53200
0*
#53300
0#
0$
0=
b11 D
b100 F
b111110100 E
b10 5
1*
#53400
0*
#53500
b1 5
07
b10 D
1*
#53600
0*
#53700
b1 D
09
1+
b0 5
1*
#53800
0*
#53900
b100 :
0+
b11 5
b10110100 '
b10110100 6
08
1=
b0 D
1*
#54000
0*
#54100
0=
b11 D
b101 F
b111111010 E
b10 5
1*
#54200
0*
#54300
b1 5
b10 D
1*
#54400
0*
#54500
b1 D
1+
b0 5
1*
#54600
0*
#54700
b101 :
0+
b11 5
b1011010 '
b1011010 6
1=
b0 D
1*
#54800
0*
#54900
1#
1$
0=
b11 D
b110 F
b111111101 E
b10 5
1*
#55000
0*
#55100
b1 5
17
b10 D
1*
#55200
0*
#55300
b1 D
19
1+
b0 5
1*
#55400
0*
#55500
b110 :
0+
b11 5
b101101 '
b101101 6
18
1=
b0 D
1*
#55600
0*
#55700
0#
0$
0=
b11 D
b111 F
b111111110 E
b10 5
1*
#55800
0*
#55900
b1 5
07
b10 D
1*
#56000
0*
#56100
b1 D
09
1+
b0 5
1*
#56200
0*
#56300
b111 :
0+
b11 5
b10010110 '
b10010110 6
08
1=
b0 D
1*
#56400
0*
#56500
1#
1$
0=
b11 D
b1000 F
b111111111 E
b10 5
1*
#56600
0*
#56700
b1 5
17
b10 D
1*
#56800
0*
#56900
b1 D
19
1+
b0 5
1*
#57000
0*
#57100
b1000 :
0+
b11 5
b1001011 '
b1001011 6
18
1=
b0 D
1*
#57200
0*
#57300
1<
0%
b10 5
1*
#57400
0*
#57500
0#
0$
0<
b1 5
b10010110 E
1%
b1111 F
0=
b11 D
1*
#57600
0*
#57700
b10 D
07
1+
b0 5
1*
#57800
0*
#57900
b1100 :
1&
09
b1 D
1*
#58000
0*
#58100
1=
b0 D
08
0&
1*
#58200
0*
#58300
1#
1$
b1111 :
0+
b10 5
b101001011 E
b0 F
0=
b11 D
1*
#58400
0*
#58500
b10 D
17
b1 5
1*
#58600
0*
#58700
1+
b0 5
19
b1 D
1*
#58800
0*
#58900
1=
b0 D
18
b0 :
0+
b11 5
1*
#59000
0*
#59100
b10 5
b110100101 E
b1 F
0=
b11 D
1*
#59200
0*
#59300
b10 D
b1 5
1*
#59400
0*
#59500
1+
b0 5
b1 D
1*
#59600
0*
#59700
1=
b0 D
b1 :
0+
b11 5
b10100101 '
b10100101 6
1*
#59800
0*
#59900
0#
0$
b10 5
b111010010 E
b10 F
0=
b11 D
1*
#60000
0*
#60100
b10 D
07
b1 5
1*
#60200
0*
#60300
1+
b0 5
09
b1 D
1*
#60400
0*
#60500
1=
b0 D
08
b10 :
0+
b11 5
b11010010 '
b11010010 6
1*
#60600
0*
#60700
1#
1$
b10 5
b111101001 E
b11 F
0=
b11 D
1*
#60800
0*
#60900
b10 D
17
b1 5
1*
#61000
0*
#61100
1+
b0 5
19
b1 D
1*
#61200
0*
#61300
1=
b0 D
18
b11 :
0+
b11 5
b1101001 '
b1101001 6
1*
#61400
0*
#61500
0#
0$
b10 5
b111110100 E
b100 F
0=
b11 D
1*
#61600
0*
#61700
b10 D
07
b1 5
1*
#61800
0*
#61900
1+
b0 5
09
b1 D
1*
#62000
0*
#62100
1=
b0 D
08
b100 :
0+
b11 5
b10110100 '
b10110100 6
1*
#62200
0*
#62300
b10 5
b111111010 E
b101 F
0=
b11 D
1*
#62400
0*
#62500
b10 D
b1 5
1*
#62600
0*
#62700
1+
b0 5
b1 D
1*
#62800
0*
#62900
1=
b0 D
b101 :
0+
b11 5
b1011010 '
b1011010 6
1*
#63000
0*
#63100
1#
1$
b10 5
b111111101 E
b110 F
0=
b11 D
1*
#63200
0*
#63300
b10 D
17
b1 5
1*
#63400
0*
#63500
1+
b0 5
19
b1 D
1*
#63600
0*
#63700
1=
b0 D
18
b110 :
0+
b11 5
b101101 '
b101101 6
1*
#63800
0*
#63900
0#
0$
b10 5
b111111110 E
b111 F
0=
b11 D
1*
#64000
0*
#64100
b10 D
07
b1 5
1*
#64200
0*
#64300
1+
b0 5
09
b1 D
1*
#64400
0*
#64500
1=
b0 D
08
b111 :
0+
b11 5
b10010110 '
b10010110 6
1*
#64600
0*
#64700
1#
1$
b10 5
b111111111 E
b1000 F
0=
b11 D
1*
#64800
0*
#64900
b10 D
17
b1 5
1*
#65000
0*
#65100
1+
b0 5
19
b1 D
1*
#65200
0*
#65300
1=
b0 D
18
b1000 :
0+
b11 5
b1001011 '
b1001011 6
1*
#65400
0*
#65500
1<
b10 5
0%
1*
#65600
0*
#65700
0<
0#
0$
0=
b11 D
1%
b1111 F
b10010110 E
b1 5
1*
#65800
0*
#65900
1+
b0 5
07
b10 D
1*
#66000
0*
#66100
b1 D
09
b1100 :
1&
1*
#66200
0*
#66300
0&
08
1=
b0 D
1*
#66400
0*
#66500
1#
1$
0=
b11 D
b0 F
b101001011 E
b1111 :
0+
b10 5
1*
#66600
0*
#66700
b1 5
17
b10 D
1*
#66800
0*
#66900
b1 D
19
1+
b0 5
1*
#67000
0*
#67100
b0 :
0+
b11 5
18
1=
b0 D
1*
#67200
0*
#67300
0=
b11 D
b1 F
b110100101 E
b10 5
1*
#67400
0*
#67500
b1 5
b10 D
1*
#67600
0*
#67700
b1 D
1+
b0 5
1*
#67800
0*
#67900
b1 :
0+
b11 5
b10100101 '
b10100101 6
1=
b0 D
1*
#68000
0*
#68100
0#
0$
0=
b11 D
b10 F
b111010010 E
b10 5
1*
#68200
0*
#68300
b1 5
07
b10 D
1*
#68400
0*
#68500
b1 D
09
1+
b0 5
1*
#68600
0*
#68700
b10 :
0+
b11 5
b11010010 '
b11010010 6
08
1=
b0 D
1*
#68800
0*
#68900
1#
1$
0=
b11 D
b11 F
b111101001 E
b10 5
1*
#69000
0*
#69100
b1 5
17
b10 D
1*
#69200
0*
#69300
b1 D
19
1+
b0 5
1*
#69400
0*
#69500
b11 :
0+
b11 5
b1101001 '
b1101001 6
18
1=
b0 D
1*
#69600
0*
#69700
0#
0$
0=
b11 D
b100 F
b111110100 E
b10 5
1*
#69800
0*
#69900
b1 5
07
b10 D
1*
#70000
0*
#70100
b1 D
09
1+
b0 5
1*
#70200
0*
#70300
b100 :
0+
b11 5
b10110100 '
b10110100 6
08
1=
b0 D
1*
#70400
0*
#70500
0=
b11 D
b101 F
b111111010 E
b10 5
1*
#70600
0*
#70700
b1 5
b10 D
1*
#70800
0*
#70900
b1 D
1+
b0 5
1*
#71000
0*
#71100
b101 :
0+
b11 5
b1011010 '
b1011010 6
1=
b0 D
1*
#71200
0*
#71300
1#
1$
0=
b11 D
b110 F
b111111101 E
b10 5
1*
#71400
0*
#71500
b1 5
17
b10 D
1*
#71600
0*
#71700
b1 D
19
1+
b0 5
1*
#71800
0*
#71900
b110 :
0+
b11 5
b101101 '
b101101 6
18
1=
b0 D
1*
#72000
0*
#72100
0#
0$
0=
b11 D
b111 F
b111111110 E
b10 5
1*
#72200
0*
#72300
b1 5
07
b10 D
1*
#72400
0*
#72500
b1 D
09
1+
b0 5
1*
#72600
0*
#72700
b111 :
0+
b11 5
b10010110 '
b10010110 6
08
1=
b0 D
1*
#72800
0*
#72900
1#
1$
0=
b11 D
b1000 F
b111111111 E
b10 5
1*
#73000
0*
#73100
b1 5
17
b10 D
1*
#73200
0*
#73300
b1 D
19
1+
b0 5
1*
#73400
0*
#73500
b1000 :
0+
b11 5
b1001011 '
b1001011 6
18
1=
b0 D
1*
#73600
0*
#73700
1<
0%
b10 5
1*
#73800
0*
#73900
0#
0$
0<
b1 5
b10010110 E
1%
b1111 F
0=
b11 D
1*
#74000
0*
#74100
b10 D
07
1+
b0 5
1*
#74200
0*
#74300
b1100 :
1&
09
b1 D
1*
#74400
0*
#74500
1=
b0 D
08
0&
1*
#74600
0*
#74700
1#
1$
b1111 :
0+
b10 5
b101001011 E
b0 F
0=
b11 D
1*
#74800
0*
#74900
b10 D
17
b1 5
1*
#75000
0*
#75100
1+
b0 5
19
b1 D
1*
#75200
0*
#75300
1=
b0 D
18
b0 :
0+
b11 5
1*
#75400
0*
#75500
b10 5
b110100101 E
b1 F
0=
b11 D
1*
#75600
0*
#75700
b10 D
b1 5
1*
#75800
0*
#75900
1+
b0 5
b1 D
1*
#76000
0*
